{
  "functions": {
    "source": "functions"
  },
  "hosting": {
    "public": "public",
    "ignore": [
      "firebase.json",
      "**/.*",
      "**/node_modules/**"
    ]
  },
  "rewrites": [
    {
      "source": "**",
      "function": "ssrapp"
    }
  ],
  "emulators": {
    "functions": {
      "port": 5001
    },
    "hosting": {
      "port": 5000
    },
    "ui": {
      "enabled": true
    }
  }
}
